<?xml version="1.0" encoding="UTF-8" standalone="no" ?>
<!DOCTYPE svg PUBLIC "-//W3C//DTD SVG 1.1//EN" "http://www.w3.org/Graphics/SVG/1.1/DTD/svg11.dtd">
<svg xmlns="http://www.w3.org/2000/svg" xmlns:xlink="http://www.w3.org/1999/xlink" version="1.1" width="1080" height="108" viewBox="0 0 1080 108" xml:space="preserve">
<rect width="1080" height="108" style="fill:#E14D2A;  stroke:rgba(0, 0, 0, 0)" /> <ellipse cx="746" cy="55" rx="10" ry="14" transform="rotate(-2 746,55)" style="fill:#3E6D9C;stroke:rgba(0, 0, 0, 0)" />
<rect x="482" y="52" width="330" height="218" transform="rotate(3 482,52)" style="fill:#001253; stroke:rgba(0, 0, 0, 0)"/>
<rect x="472" y="85" width="173" height="349" transform="rotate(-17 472,85)" style="fill:#001253; stroke:rgba(0, 0, 0, 0)"/>
<ellipse cx="133" cy="52" rx="43" ry="67" transform="rotate(-12 133,52)" style="fill:#E14D2A;stroke:rgba(0, 0, 0, 0)" />
<rect x="236" y="13" width="16" height="69" transform="rotate(11 236,13)" style="fill:#001253; stroke:rgba(0, 0, 0, 0)"/>
<ellipse cx="929" cy="51" rx="195" ry="171" transform="rotate(12 929,51)" style="fill:#E14D2A;stroke:rgba(0, 0, 0, 0)" />
<ellipse cx="779" cy="40" rx="146" ry="168" transform="rotate(-11 779,40)" style="fill:#FD841F;stroke:rgba(0, 0, 0, 0)" />
<ellipse cx="866" cy="67" rx="135" ry="95" transform="rotate(20 866,67)" style="fill:#E14D2A;stroke:rgba(0, 0, 0, 0)" />
<ellipse cx="1018" cy="100" rx="179" ry="205" transform="rotate(-13 1018,100)" style="fill:#001253;stroke:rgba(0, 0, 0, 0)" />
<rect x="204" y="86" width="257" height="72" transform="rotate(-15 204,86)" style="fill:#FD841F; stroke:rgba(0, 0, 0, 0)"/>
<rect x="626" y="19" width="276" height="277" transform="rotate(2 626,19)" style="fill:#3E6D9C; stroke:rgba(0, 0, 0, 0)"/>
<rect x="864" y="25" width="237" height="68" transform="rotate(-5 864,25)" style="fill:#001253; stroke:rgba(0, 0, 0, 0)"/>
<ellipse cx="215" cy="53" rx="101" ry="85" transform="rotate(8 215,53)" style="fill:#E14D2A;stroke:rgba(0, 0, 0, 0)" />
<rect x="701" y="43" width="116" height="78" transform="rotate(-10 701,43)" style="fill:#3E6D9C; stroke:rgba(0, 0, 0, 0)"/>
<ellipse cx="8" cy="48" rx="46" ry="66" transform="rotate(-10 8,48)" style="fill:#3E6D9C;stroke:rgba(0, 0, 0, 0)" />
<rect x="58" y="17" width="181" height="12" transform="rotate(-13 58,17)" style="fill:#001253; stroke:rgba(0, 0, 0, 0)"/>
<rect x="617" y="92" width="263" height="291" transform="rotate(-7 617,92)" style="fill:#FD841F; stroke:rgba(0, 0, 0, 0)"/>
<ellipse cx="571" cy="57" rx="100" ry="90" transform="rotate(5 571,57)" style="fill:#FD841F;stroke:rgba(0, 0, 0, 0)" />
<ellipse cx="421" cy="53" rx="31" ry="25" transform="rotate(3 421,53)" style="fill:#001253;stroke:rgba(0, 0, 0, 0)" />
<ellipse cx="814" cy="25" rx="102" ry="74" transform="rotate(14 814,25)" style="fill:#3E6D9C;stroke:rgba(0, 0, 0, 0)" />
<ellipse cx="613" cy="106" rx="138" ry="112" transform="rotate(13 613,106)" style="fill:#FD841F;stroke:rgba(0, 0, 0, 0)" />
<rect x="925" y="42" width="38" height="288" transform="rotate(-19 925,42)" style="fill:#FD841F; stroke:rgba(0, 0, 0, 0)"/>
<ellipse cx="822" cy="25" rx="38" ry="68" transform="rotate(-15 822,25)" style="fill:#FD841F;stroke:rgba(0, 0, 0, 0)" />
<rect x="314" y="50" width="66" height="311" transform="rotate(-14 314,50)" style="fill:#3E6D9C; stroke:rgba(0, 0, 0, 0)"/>
<ellipse cx="256" cy="32" rx="153" ry="191" transform="rotate(-19 256,32)" style="fill:#FD841F;stroke:rgba(0, 0, 0, 0)" />
<ellipse cx="234" cy="50" rx="211" ry="213" transform="rotate(-1 234,50)" style="fill:#001253;stroke:rgba(0, 0, 0, 0)" />
<ellipse cx="945" cy="75" rx="13" ry="-1" transform="rotate(7 945,75)" style="fill:#001253;stroke:rgba(0, 0, 0, 0)" />
<rect x="918" y="50" width="125" height="324" transform="rotate(16 918,50)" style="fill:#E14D2A; stroke:rgba(0, 0, 0, 0)"/>
<rect x="295" y="106" width="147" height="313" transform="rotate(-2 295,106)" style="fill:#3E6D9C; stroke:rgba(0, 0, 0, 0)"/>
<rect x="832" y="18" width="185" height="34" transform="rotate(20 832,18)" style="fill:#E14D2A; stroke:rgba(0, 0, 0, 0)"/>
<ellipse cx="999" cy="26" rx="135" ry="115" transform="rotate(10 999,26)" style="fill:#3E6D9C;stroke:rgba(0, 0, 0, 0)" />
<rect x="313" y="69" width="313" height="192" transform="rotate(-8 313,69)" style="fill:#E14D2A; stroke:rgba(0, 0, 0, 0)"/>
<ellipse cx="611" cy="30" rx="209" ry="217" transform="rotate(-4 611,30)" style="fill:#E14D2A;stroke:rgba(0, 0, 0, 0)" />
<ellipse cx="201" cy="18" rx="8" ry="40" transform="rotate(-16 201,18)" style="fill:#E14D2A;stroke:rgba(0, 0, 0, 0)" />
<ellipse cx="280" cy="11" rx="68" ry="102" transform="rotate(-17 280,11)" style="fill:#001253;stroke:rgba(0, 0, 0, 0)" />
<rect x="345" y="33" width="64" height="163" transform="rotate(-12 345,33)" style="fill:#E14D2A; stroke:rgba(0, 0, 0, 0)"/>
<rect x="124" y="47" width="140" height="27" transform="rotate(10 124,47)" style="fill:#3E6D9C; stroke:rgba(0, 0, 0, 0)"/>
<ellipse cx="650" cy="106" rx="208" ry="170" transform="rotate(19 650,106)" style="fill:#001253;stroke:rgba(0, 0, 0, 0)" />
<rect x="143" y="64" width="337" height="56" transform="rotate(-9 143,64)" style="fill:#001253; stroke:rgba(0, 0, 0, 0)"/>
<rect x="886" y="101" width="33" height="122" transform="rotate(-3 886,101)" style="fill:#FD841F; stroke:rgba(0, 0, 0, 0)"/>
<rect x="987" y="93" width="102" height="348" transform="rotate(4 987,93)" style="fill:#E14D2A; stroke:rgba(0, 0, 0, 0)"/>
<ellipse cx="948" cy="26" rx="97" ry="125" transform="rotate(-14 948,26)" style="fill:#3E6D9C;stroke:rgba(0, 0, 0, 0)" />
<rect x="240" y="27" width="255" height="237" transform="rotate(7 240,27)" style="fill:#001253; stroke:rgba(0, 0, 0, 0)"/>
<rect x="754" y="2" width="331" height="239" transform="rotate(9 754,2)" style="fill:#FD841F; stroke:rgba(0, 0, 0, 0)"/>
<rect x="175" y="16" width="270" height="134" transform="rotate(1 175,16)" style="fill:#FD841F; stroke:rgba(0, 0, 0, 0)"/>
<rect x="985" y="36" width="209" height="146" transform="rotate(-18 985,36)" style="fill:#3E6D9C; stroke:rgba(0, 0, 0, 0)"/>
<rect x="465" y="46" width="10" height="144" transform="rotate(14 465,46)" style="fill:#3E6D9C; stroke:rgba(0, 0, 0, 0)"/>
<rect x="805" y="33" width="345" height="207" transform="rotate(-16 805,33)" style="fill:#E14D2A; stroke:rgba(0, 0, 0, 0)"/>
<rect x="665" y="88" width="196" height="127" transform="rotate(0 665,88)" style="fill:#E14D2A; stroke:rgba(0, 0, 0, 0)"/>
<ellipse cx="640" cy="84" rx="170" ry="138" transform="rotate(16 640,84)" style="fill:#E14D2A;stroke:rgba(0, 0, 0, 0)" />
<ellipse cx="813" cy="2" rx="217" ry="213" transform="rotate(2 813,2)" style="fill:#3E6D9C;stroke:rgba(0, 0, 0, 0)" />
<ellipse cx="781" cy="75" rx="0" ry="14" transform="rotate(-7 781,75)" style="fill:#FD841F;stroke:rgba(0, 0, 0, 0)" />
<rect x="431" y="18" width="12" height="154" transform="rotate(-11 431,18)" style="fill:#FD841F; stroke:rgba(0, 0, 0, 0)"/>
<ellipse cx="251" cy="79" rx="120" ry="102" transform="rotate(9 251,79)" style="fill:#FD841F;stroke:rgba(0, 0, 0, 0)" />
<ellipse cx="758" cy="100" rx="155" ry="147" transform="rotate(4 758,100)" style="fill:#E14D2A;stroke:rgba(0, 0, 0, 0)" />
<ellipse cx="517" cy="70" rx="171" ry="135" transform="rotate(18 517,70)" style="fill:#3E6D9C;stroke:rgba(0, 0, 0, 0)" />
<rect x="632" y="90" width="217" height="200" transform="rotate(12 632,90)" style="fill:#E14D2A; stroke:rgba(0, 0, 0, 0)"/>
<ellipse cx="978" cy="4" rx="31" ry="9" transform="rotate(11 978,4)" style="fill:#001253;stroke:rgba(0, 0, 0, 0)" />
<ellipse cx="329" cy="58" rx="35" ry="53" transform="rotate(-9 329,58)" style="fill:#001253;stroke:rgba(0, 0, 0, 0)" />
<rect x="87" y="82" width="243" height="80" transform="rotate(5 87,82)" style="fill:#FD841F; stroke:rgba(0, 0, 0, 0)"/>
<ellipse cx="1048" cy="6" rx="33" ry="-1" transform="rotate(17 1048,6)" style="fill:#FD841F;stroke:rgba(0, 0, 0, 0)" />
<rect x="543" y="60" width="74" height="301" transform="rotate(-6 543,60)" style="fill:#3E6D9C; stroke:rgba(0, 0, 0, 0)"/>
<ellipse cx="638" cy="25" rx="85" ry="55" transform="rotate(15 638,25)" style="fill:#001253;stroke:rgba(0, 0, 0, 0)" />
<ellipse cx="262" cy="16" rx="73" ry="109" transform="rotate(-18 262,16)" style="fill:#3E6D9C;stroke:rgba(0, 0, 0, 0)" />
<rect x="135" y="95" width="80" height="349" transform="rotate(6 135,95)" style="fill:#3E6D9C; stroke:rgba(0, 0, 0, 0)"/>
<ellipse cx="949" cy="28" rx="12" ry="10" transform="rotate(1 949,28)" style="fill:#FD841F;stroke:rgba(0, 0, 0, 0)" />
<ellipse cx="743" cy="62" rx="146" ry="146" transform="rotate(0 743,62)" style="fill:#E14D2A;stroke:rgba(0, 0, 0, 0)" />
<ellipse cx="704" cy="6" rx="108" ry="96" transform="rotate(6 704,6)" style="fill:#3E6D9C;stroke:rgba(0, 0, 0, 0)" />
<ellipse cx="126" cy="94" rx="31" ry="41" transform="rotate(-5 126,94)" style="fill:#001253;stroke:rgba(0, 0, 0, 0)" />
<rect x="64" y="5" width="1" height="30" transform="rotate(13 64,5)" style="fill:#FD841F; stroke:rgba(0, 0, 0, 0)"/>
<ellipse cx="284" cy="42" rx="180" ry="186" transform="rotate(-3 284,42)" style="fill:#FD841F;stroke:rgba(0, 0, 0, 0)" />
<rect x="351" y="74" width="295" height="276" transform="rotate(15 351,74)" style="fill:#001253; stroke:rgba(0, 0, 0, 0)"/>
<rect x="928" y="89" width="12" height="176" transform="rotate(19 928,89)" style="fill:#001253; stroke:rgba(0, 0, 0, 0)"/>
<ellipse cx="778" cy="46" rx="158" ry="170" transform="rotate(-6 778,46)" style="fill:#3E6D9C;stroke:rgba(0, 0, 0, 0)" />
<rect x="418" y="89" width="340" height="89" transform="rotate(-4 418,89)" style="fill:#E14D2A; stroke:rgba(0, 0, 0, 0)"/>
<rect x="597" y="32" width="66" height="321" transform="rotate(-1 597,32)" style="fill:#001253; stroke:rgba(0, 0, 0, 0)"/>
<rect x="204" y="43" width="348" height="178" transform="rotate(18 204,43)" style="fill:#3E6D9C; stroke:rgba(0, 0, 0, 0)"/>
<ellipse cx="691" cy="8" rx="62" ry="78" transform="rotate(-8 691,8)" style="fill:#E14D2A;stroke:rgba(0, 0, 0, 0)" />
<rect x="75" y="72" width="106" height="129" transform="rotate(8 75,72)" style="fill:#E14D2A; stroke:rgba(0, 0, 0, 0)"/>
<rect x="344" y="53" width="212" height="300" transform="rotate(17 344,53)" style="fill:#FD841F; stroke:rgba(0, 0, 0, 0)"/> <text x="400" y="150" font-family="Georgia, Times, serif" font-size="75" font-weight="900" style="fill:white;" >
<tspan x="658" y="30">ad</tspan>
<tspan x="734" y="81">op</tspan>
<tspan x="1047" y="104"  text-anchor="end">0.0.9</tspan>
</text>
</svg>
